CSC3107_Assignment_Seashell
…
b. View Data

i. Reading of Greenhouse Gas Emissions Per Capita Dataset

# A tibble: 35,611 × 4
   Entity      Code   Year Per.capita.greenhouse.gas.emissions.in.CO..equivale…¹
   <chr>       <chr> <int>                                                 <dbl>
 1 Afghanistan AFG    1850                                                  1.96
 2 Afghanistan AFG    1851                                                  1.96
 3 Afghanistan AFG    1852                                                  1.97
 4 Afghanistan AFG    1853                                                  1.98
 5 Afghanistan AFG    1854                                                  1.99
 6 Afghanistan AFG    1855                                                  1.99
 7 Afghanistan AFG    1856                                                  2.00
 8 Afghanistan AFG    1857                                                  2.00
 9 Afghanistan AFG    1858                                                  2.01
10 Afghanistan AFG    1859                                                  2.01
# ℹ 35,601 more rows
# ℹ abbreviated name: ¹​Per.capita.greenhouse.gas.emissions.in.CO..equivalents

ii. Reading of Total Greenhouse Gas Emission Analysis Dataset

# A tibble: 8,424 × 10
   region scenario   sector indicator  year  value unit  version comments source
   <chr>  <chr>      <chr>  <chr>     <int>  <dbl> <chr> <chr>   <chr>    <chr> 
 1 VNM    Historical Econo… Emission…  1990   97.5 MtCO… 2023-1… Histori… Lates…
 2 USA    Historical Econo… Emission…  1990 6454.  MtCO… 2023-1… Histori… Lates…
 3 USA    Historical LULUCF Emission…  1990 -886.  MtCO… 2023-1… Histori… Lates…
 4 UKR    Historical Econo… Emission…  1990  943.  MtCO… 2021-1… Histori… Lates…
 5 UKR    Historical LULUCF Emission…  1990  -58.4 MtCO… 2021-1… Histori… Lates…
 6 GBR    Historical Econo… Emission…  1990  792.  MtCO… 2023-0… Histori… Lates…
 7 GBR    Historical LULUCF Emission…  1990   11.0 MtCO… 2023-0… Histori… Lates…
 8 ARE    Historical Econo… Emission…  1990   61.7 MtCO… 2023-1… Histori… Lates…
 9 ARE    Historical LULUCF Emission…  1990    0   MtCO… 2023-1… Histori… Lates…
10 TUR    Historical Econo… Emission…  1990  220.  MtCO… 2023-0… Histori… Lates…
# ℹ 8,414 more rows

iii. Reading of Population From 1960 - 2022 Dataset

# A tibble: 266 × 69
   Country.Name  Country.Code Indicator.Name Indicator.Code  X1960  X1961  X1962
   <chr>         <chr>        <chr>          <chr>           <dbl>  <dbl>  <dbl>
 1 Aruba         ABW          Population, t… SP.POP.TOTL    5.46e4 5.58e4 5.67e4
 2 Africa Easte… AFE          Population, t… SP.POP.TOTL    1.31e8 1.34e8 1.38e8
 3 Afghanistan   AFG          Population, t… SP.POP.TOTL    8.62e6 8.79e6 8.97e6
 4 Africa Weste… AFW          Population, t… SP.POP.TOTL    9.73e7 9.93e7 1.01e8
 5 Angola        AGO          Population, t… SP.POP.TOTL    5.36e6 5.44e6 5.52e6
 6 Albania       ALB          Population, t… SP.POP.TOTL    1.61e6 1.66e6 1.71e6
 7 Andorra       AND          Population, t… SP.POP.TOTL    9.44e3 1.02e4 1.10e4
 8 Arab World    ARB          Population, t… SP.POP.TOTL    9.34e7 9.58e7 9.83e7
 9 United Arab … ARE          Population, t… SP.POP.TOTL    1.33e5 1.41e5 1.49e5
10 Argentina     ARG          Population, t… SP.POP.TOTL    2.03e7 2.07e7 2.10e7
# ℹ 256 more rows
# ℹ 62 more variables: X1963 <dbl>, X1964 <dbl>, X1965 <dbl>, X1966 <dbl>,
#   X1967 <dbl>, X1968 <dbl>, X1969 <dbl>, X1970 <dbl>, X1971 <dbl>,
#   X1972 <dbl>, X1973 <dbl>, X1974 <dbl>, X1975 <dbl>, X1976 <dbl>,
#   X1977 <dbl>, X1978 <dbl>, X1979 <dbl>, X1980 <dbl>, X1981 <dbl>,
#   X1982 <dbl>, X1983 <dbl>, X1984 <dbl>, X1985 <dbl>, X1986 <dbl>,
#   X1987 <dbl>, X1988 <dbl>, X1989 <dbl>, X1990 <dbl>, X1991 <dbl>, …

c. Clean

i. Remove NAs and renamed column from Greenhouse Gas Emissions Per Capita Dataset

# A tibble: 35,611 × 4
   country     code   year per_capita_ghg_emissions_t
   <chr>       <chr> <int>                      <dbl>
 1 Afghanistan AFG    1850                       1.96
 2 Afghanistan AFG    1851                       1.96
 3 Afghanistan AFG    1852                       1.97
 4 Afghanistan AFG    1853                       1.98
 5 Afghanistan AFG    1854                       1.99
 6 Afghanistan AFG    1855                       1.99
 7 Afghanistan AFG    1856                       2.00
 8 Afghanistan AFG    1857                       2.00
 9 Afghanistan AFG    1858                       2.01
10 Afghanistan AFG    1859                       2.01
# ℹ 35,601 more rows

ii. Rename column from Total Population Dataset

# A tibble: 266 × 69
   country       code  Indicator.Name Indicator.Code  X1960  X1961  X1962  X1963
   <chr>         <chr> <chr>          <chr>           <dbl>  <dbl>  <dbl>  <dbl>
 1 Aruba         ABW   Population, t… SP.POP.TOTL    5.46e4 5.58e4 5.67e4 5.75e4
 2 Africa Easte… AFE   Population, t… SP.POP.TOTL    1.31e8 1.34e8 1.38e8 1.42e8
 3 Afghanistan   AFG   Population, t… SP.POP.TOTL    8.62e6 8.79e6 8.97e6 9.16e6
 4 Africa Weste… AFW   Population, t… SP.POP.TOTL    9.73e7 9.93e7 1.01e8 1.04e8
 5 Angola        AGO   Population, t… SP.POP.TOTL    5.36e6 5.44e6 5.52e6 5.60e6
 6 Albania       ALB   Population, t… SP.POP.TOTL    1.61e6 1.66e6 1.71e6 1.76e6
 7 Andorra       AND   Population, t… SP.POP.TOTL    9.44e3 1.02e4 1.10e4 1.18e4
 8 Arab World    ARB   Population, t… SP.POP.TOTL    9.34e7 9.58e7 9.83e7 1.01e8
 9 United Arab … ARE   Population, t… SP.POP.TOTL    1.33e5 1.41e5 1.49e5 1.57e5
10 Argentina     ARG   Population, t… SP.POP.TOTL    2.03e7 2.07e7 2.10e7 2.14e7
# ℹ 256 more rows
# ℹ 61 more variables: X1964 <dbl>, X1965 <dbl>, X1966 <dbl>, X1967 <dbl>,
#   X1968 <dbl>, X1969 <dbl>, X1970 <dbl>, X1971 <dbl>, X1972 <dbl>,
#   X1973 <dbl>, X1974 <dbl>, X1975 <dbl>, X1976 <dbl>, X1977 <dbl>,
#   X1978 <dbl>, X1979 <dbl>, X1980 <dbl>, X1981 <dbl>, X1982 <dbl>,
#   X1983 <dbl>, X1984 <dbl>, X1985 <dbl>, X1986 <dbl>, X1987 <dbl>,
#   X1988 <dbl>, X1989 <dbl>, X1990 <dbl>, X1991 <dbl>, X1992 <dbl>, …

d. Process

i. Filter emissions happening in 2022 from Greenhouse Gas Emissions Per Capita Dataset

# A tibble: 208 × 4
   country             code   year per_capita_ghg_emissions_t
   <chr>               <chr> <int>                      <dbl>
 1 Afghanistan         "AFG"  2022                      0.890
 2 Africa              ""     2022                      3.33 
 3 Albania             "ALB"  2022                      2.83 
 4 Algeria             "DZA"  2022                      6.28 
 5 Andorra             "AND"  2022                      6.04 
 6 Angola              "AGO"  2022                      5.12 
 7 Antigua and Barbuda "ATG"  2022                      7.28 
 8 Argentina           "ARG"  2022                      8.53 
 9 Armenia             "ARM"  2022                      3.47 
10 Asia                ""     2022                      6.37 
# ℹ 198 more rows

ii. Filter projected reduction emission by 2030 to keep global temperature rise below 1.5°C from Greenhouse Gas Emission Analysis Dataset

# A tibble: 41 × 2
   region projected_ghg_emissions_t
   <chr>                      <dbl>
 1 BTN                      3100000
 2 CHE                    -32360000
 3 GMB                      7670000
 4 CRI                     14910000
 5 NOR                    -12990000
 6 SGP                      8270000
 7 NZL                     31670000
 8 CHL                     64020000
 9 PER                    102690000
10 MAR                    115210000
# ℹ 31 more rows

iii. Filter population data for 2022 from Total Population Dataset

# A tibble: 266 × 2
   code  population
   <chr>      <dbl>
 1 ABW       106445
 2 AFE    720859132
 3 AFG     41128771
 4 AFW    490330870
 5 AGO     35588987
 6 ALB      2777689
 7 AND        79824
 8 ARB    464684914
 9 ARE      9441129
10 ARG     46234830
# ℹ 256 more rows

iv. Merge Per Capita GHG 2022 and Population 2022 datasets based on the country code

# A tibble: 208 × 4
   country             code  per_capita_ghg_emissions_t population
   <chr>               <chr>                      <dbl>      <dbl>
 1 Afghanistan         "AFG"                      0.890   41128771
 2 Africa              ""                         3.33          NA
 3 Albania             "ALB"                      2.83     2777689
 4 Algeria             "DZA"                      6.28    44903225
 5 Andorra             "AND"                      6.04       79824
 6 Angola              "AGO"                      5.12    35588987
 7 Antigua and Barbuda "ATG"                      7.28       93763
 8 Argentina           "ARG"                      8.53    46234830
 9 Armenia             "ARM"                      3.47     2780469
10 Asia                ""                         6.37          NA
# ℹ 198 more rows

v. Merge the GHG 2022 and Projected GHG 2030 datasets based on the country code

# A tibble: 208 × 5
   country        code  per_capita_ghg_emiss…¹ population pc_projected_ghg_emi…²
   <chr>          <chr>                  <dbl>      <dbl>                  <dbl>
 1 Afghanistan    "AFG"                  0.890   41128771                  NA   
 2 Africa         ""                     3.33          NA                  NA   
 3 Albania        "ALB"                  2.83     2777689                  NA   
 4 Algeria        "DZA"                  6.28    44903225                  NA   
 5 Andorra        "AND"                  6.04       79824                  NA   
 6 Angola         "AGO"                  5.12    35588987                  NA   
 7 Antigua and B… "ATG"                  7.28       93763                  NA   
 8 Argentina      "ARG"                  8.53    46234830                   4.14
 9 Armenia        "ARM"                  3.47     2780469                  NA   
10 Asia           ""                     6.37          NA                  NA   
# ℹ 198 more rows
# ℹ abbreviated names: ¹​per_capita_ghg_emissions_t,
#   ²​pc_projected_ghg_emissions_t
…
